…
tidygeoRSS relies on sf, which also relies on some system dependencies,
so you will most likely have to install certain things before using
tidygeoRSS. More information is available
[here](https://r-spatial.github.io/sf/index.html#installing).

## Usage

### geoJSON example

``` r
library(tidygeoRSS)
tidygeo("https://earthquake.usgs.gov/earthquakes/feed/v1.0/summary/2.5_day.geojson")
#> GET request successful. Parsing...
#> # A tibble: 52 x 30
#>    feed_title feed_url time_generated id      mag place    time updated url  
#>    <chr>      <chr>             <dbl> <chr> <dbl> <chr>   <dbl>   <dbl> <chr>
#>  1 USGS Magn… https:/…  1591182375000 us60…  4.4  "409… 1.59e12 1.59e12 http…
#>  2 USGS Magn… https:/…  1591182375000 nn00…  2.5  "34 … 1.59e12 1.59e12 http…
#>  3 USGS Magn… https:/…  1591182375000 us60…  5.9  "408… 1.59e12 1.59e12 http…
#>  4 USGS Magn… https:/…  1591182375000 nn00…  2.5  "29 … 1.59e12 1.59e12 http…
#>  5 USGS Magn… https:/…  1591182375000 us60…  5.2  "74 … 1.59e12 1.59e12 http…
#>  6 USGS Magn… https:/…  1591182375000 us60…  4.9  "30 … 1.59e12 1.59e12 http…
#>  7 USGS Magn… https:/…  1591182375000 us60…  4.6  "62 … 1.59e12 1.59e12 http…
#>  8 USGS Magn… https:/…  1591182375000 us60…  6.8  "48 … 1.59e12 1.59e12 http…
#>  9 USGS Magn… https:/…  1591182375000 us60…  4.8  "240… 1.59e12 1.59e12 http…
#> 10 USGS Magn… https:/…  1591182375000 pr20…  2.99 "2 k… 1.59e12 1.59e12 http…
#> # … with 42 more rows, and 21 more variables: detail <chr>, felt <int>,
#> #   cdi <dbl>, mmi <dbl>, alert <chr>, status <chr>, tsunami <int>, sig <int>,
#> #   net <chr>, code <chr>, ids <chr>, sources <chr>, types <chr>, nst <int>,
#> #   dmin <dbl>, rms <dbl>, gap <dbl>, magType <chr>, type <chr>, title <chr>,
#> #   geometry <POINT [°]>
```

### geo-Atom example

``` r
tidygeo("https://earthquake.usgs.gov/earthquakes/feed/v1.0/summary/all_hour.atom")
#> GET request successful. Parsing...
#> Simple feature collection with 21 features and 13 fields
#> geometry type:  POINT
#> dimension:      XY
#> bbox:           xmin: 33.45283 ymin: -118.0382 xmax: 46.9145 ymax: 152.5861
#> CRS:            NA
#> # A tibble: 21 x 14
#>    feed_title feed_url feed_last_updated   feed_author feed_link feed_icon
#>    <chr>      <chr>    <dttm>              <chr>       <chr>     <chr>    
#>  1 USGS All … https:/… 2020-06-03 10:06:32 U.S. Geolo… https://… https://…
#>  2 USGS All … https:/… 2020-06-03 10:06:32 U.S. Geolo… https://… https://…
#>  3 USGS All … https:/… 2020-06-03 10:06:32 U.S. Geolo… https://… https://…
#>  4 USGS All … https:/… 2020-06-03 10:06:32 U.S. Geolo… https://… https://…
#>  5 USGS All … https:/… 2020-06-03 10:06:32 U.S. Geolo… https://… https://…
#>  6 USGS All … https:/… 2020-06-03 10:06:32 U.S. Geolo… https://… https://…
#>  7 USGS All … https:/… 2020-06-03 10:06:32 U.S. Geolo… https://… https://…
#>  8 USGS All … https:/… 2020-06-03 10:06:32 U.S. Geolo… https://… https://…
#>  9 USGS All … https:/… 2020-06-03 10:06:32 U.S. Geolo… https://… https://…
#> 10 USGS All … https:/… 2020-06-03 10:06:32 U.S. Geolo… https://… https://…
#> # … with 11 more rows, and 8 more variables: entry_title <chr>,
#> #   entry_url <chr>, entry_last_updated <dttm>, entry_link <chr>,
#> #   entry_summary <chr>, entry_category <list>, entry_latlon <POINT>,
#> #   entry_elev <dbl>
```
…
